noise

mult 0.0
connect 0 0 1 0

const
connect 2 0 1 1

filter
connect 1 0 3 0
filter
connect 3 0 4 0
filter
connect 4 0 5 0
filter
connect 5 0 6 0
filter
connect 6 0 7 0
filter
connect 7 0 8 0


output 8 0 0.2


cc 0 2 1
cc 1 3 1
cc 1 4 1
cc 1 5 1
cc 1 6 1
cc 1 7 1
cc 1 8 1
